<?xml version="1.0" encoding="UTF-8"?>
<svg width="180px" height="32px" viewBox="0 0 180 32" version="1.1" xmlns="http://www.w3.org/2000/svg" xmlns:xlink="http://www.w3.org/1999/xlink">
    <!-- Generator: Sketch 46.2 (44496) - http://www.bohemiancoding.com/sketch -->
    <title>logo/positive</title>
    <desc>Created with Sketch.</desc>
    <defs></defs>
    <g id="Symbols" stroke="none" stroke-width="1" fill="none" fill-rule="evenodd">
        <g id="module/desktop/header/simple-header-only-logo" transform="translate(-630.000000, -32.000000)">
            <g id="logo/positive" transform="translate(630.000000, 32.000000)">
                <g id="logo">
                    <path d="M39.4857931,31.0949161 L39.4857931,8.14472258 L41.8423448,8.14472258 L41.8423448,9.28846452 C43.4571724,8.3140129 45.0492414,7.82781935 46.6216552,7.82781935 C48.6388966,7.82781935 50.1047586,8.46885161 51.0182069,9.74988387 C51.9306207,11.0319484 52.3868276,13.1470452 52.3868276,16.0910452 C52.3868276,19.0381419 51.8509655,21.1511742 50.7792414,22.4332387 C49.7054483,23.7163355 47.9282069,24.3563355 45.4433793,24.3563355 C44.1471724,24.3563355 42.9585517,24.2386581 41.8744138,24.0064 L41.8744138,31.0949161 L39.4857931,31.0949161 Z M46.2709655,9.95633548 C45.6347586,9.95633548 44.949931,10.0626581 44.2164828,10.274271 C43.484069,10.4869161 42.9047586,10.698529 42.4806207,10.9101419 L41.8744138,11.2280774 L41.8744138,21.9408516 C43.3826897,22.1731097 44.529931,22.2897548 45.3151034,22.2897548 C47.0354483,22.2897548 48.2416552,21.8035613 48.9316552,20.8280774 C49.6206207,19.8536258 49.9671724,18.2639484 49.9671724,16.0590452 C49.9671724,13.8562065 49.6537241,12.2882065 49.0268276,11.3560774 C48.399931,10.4229161 47.4823448,9.95633548 46.2709655,9.95633548 L46.2709655,9.95633548 Z" id="Fill-3" fill="#414042"></path>
                    <path d="M56.2741034,24.0384 L56.2741034,8.14472258 L58.6306552,8.14472258 L58.6306552,10.3073032 C60.4792759,9.03452903 62.4220345,8.19736774 64.4620345,7.79581935 L64.4620345,10.2113032 C63.5692759,10.3816258 62.6403103,10.6458839 61.673069,11.0051097 C60.7068621,11.3653677 59.9703103,11.6843355 59.4603103,11.9589161 L58.6627241,12.3728516 L58.6627241,24.0384 L56.2741034,24.0384 Z" id="Fill-4" fill="#414042"></path>
                    <path d="M66.276,16.0592516 C66.276,13.1565419 66.7963448,11.0589935 67.8370345,9.76557419 C68.8777241,8.47421935 70.6353103,7.82802581 73.1097931,7.82802581 C75.5832414,7.82802581 77.3356552,8.47421935 78.366,9.76557419 C79.3963448,11.0589935 79.9104828,13.1565419 79.9104828,16.0592516 C79.9104828,18.9629935 79.4211724,21.0708645 78.4446207,22.384929 C77.468069,23.6989935 75.6846207,24.3565419 73.0932414,24.3565419 C70.5018621,24.3565419 68.7184138,23.6989935 67.7418621,22.384929 C66.7653103,21.0708645 66.276,18.9629935 66.276,16.0592516 M68.7297931,16.0117677 C68.7297931,18.3322839 69.0111724,19.9591226 69.5728966,20.8912516 C70.1366897,21.8244129 71.313931,22.2899613 73.1097931,22.2899613 C74.9035862,22.2899613 76.0766897,21.8295742 76.6291034,20.9067355 C77.1815172,19.9859613 77.4587586,18.3591226 77.4587586,16.0282839 C77.4587586,13.6974452 77.1494483,12.0922839 76.533931,11.2128 C75.9184138,10.3333161 74.7773793,9.89357419 73.1097931,9.89357419 C71.4422069,9.89357419 70.2949655,10.3333161 69.668069,11.2128 C69.0432414,12.0922839 68.7297931,13.6922839 68.7297931,16.0117677" id="Fill-5" fill="#414042"></path>
                    <path d="M84.2753793,23.6247742 L84.2753793,8.14503226 L86.631931,8.14503226 L86.631931,23.6567742 C86.631931,25.6067097 86.2822759,27.0683871 85.5808966,28.043871 C84.8795172,29.0183226 83.4674483,30.0464516 81.3436552,31.1272258 L80.3877931,29.2836129 C82.0450345,28.3298065 83.1064138,27.5194839 83.574,26.8516129 C84.0405517,26.1837419 84.2753793,25.108129 84.2753793,23.6247742 L84.2753793,23.6247742 Z M84.2753793,1.78735484 L86.631931,1.78735484 L86.631931,4.55277419 L84.2753793,4.55277419 L84.2753793,1.78735484 Z" id="Fill-6" fill="#414042"></path>
                    <path d="M102.050276,22.0683355 L102.973034,21.9723355 L103.038207,23.8479484 C100.616483,24.1875613 98.5464828,24.3568516 96.8261379,24.3568516 C94.5316552,24.3568516 92.9064828,23.6951742 91.9516552,22.3697548 C90.9957931,21.0464 90.5178621,18.9849806 90.5178621,16.186529 C90.5178621,10.6144 92.7368276,7.82730323 97.1768276,7.82730323 C99.3213103,7.82730323 100.924759,8.4260129 101.987172,9.6224 C103.047517,10.8198194 103.579241,12.7005935 103.579241,15.2657548 L103.450966,17.0773677 L92.9395862,17.0773677 C92.9395862,18.8363355 93.2582069,20.1400774 93.8954483,20.986529 C94.5316552,21.8340129 95.6416552,22.2593032 97.2244138,22.2593032 C98.8051034,22.2593032 100.414759,22.194271 102.050276,22.0683355 L102.050276,22.0683355 Z M101.190621,15.1707871 C101.190621,13.2208516 100.877172,11.8427871 100.250276,11.0376258 C99.6233793,10.2324645 98.6044138,9.82988387 97.1923448,9.82988387 C95.7792414,9.82988387 94.7188966,10.2541419 94.0061379,11.1005935 C93.2944138,11.9491097 92.9282069,13.3054968 92.9064828,15.1707871 L101.190621,15.1707871 Z" id="Fill-7" fill="#414042"></path>
                    <path d="M113.263448,7.8276129 C113.964828,7.8276129 115.153448,7.95354839 116.831379,8.20954839 L117.595862,8.30451613 L117.50069,10.2420645 C115.801034,10.052129 114.548276,9.95612903 113.741379,9.95612903 C111.935172,9.95612903 110.710345,10.3855484 110.061724,11.2433548 C109.414138,12.1021935 109.08931,13.691871 109.08931,16.0113548 C109.08931,18.3329032 109.393448,19.9494194 109.997586,20.859871 C110.602759,21.7713548 111.862759,22.2265806 113.773448,22.2265806 L117.531724,21.9406452 L117.626897,23.9112258 C115.652069,24.2085161 114.175862,24.3571613 113.200345,24.3571613 C110.714483,24.3571613 108.99931,23.7202581 108.054828,22.4495484 C107.10931,21.1778065 106.637586,19.0317419 106.637586,16.0113548 C106.637586,12.992 107.147586,10.8738065 108.166552,9.65470968 C109.185517,8.43664516 110.884138,7.8276129 113.263448,7.8276129" id="Fill-8" fill="#414042"></path>
                    <path d="M130.190793,10.2116129 L125.125966,10.2116129 L125.125966,17.808 C125.125966,19.6309677 125.258379,20.8283871 125.524241,21.4002581 C125.789069,21.9731613 126.420103,22.2590968 127.419414,22.2590968 L130.253897,22.068129 L130.414241,24.0387097 C128.990793,24.2709677 127.906655,24.3876129 127.164931,24.3876129 C125.508724,24.3876129 124.361483,23.9850323 123.723207,23.179871 C123.087,22.3757419 122.767345,20.8387097 122.767345,18.5708387 L122.767345,10.2116129 L120.507,10.2116129 L120.507,8.14503226 L122.767345,8.14503226 L122.767345,3.28103226 L125.125966,3.28103226 L125.125966,8.14503226 L130.190793,8.14503226 L130.190793,10.2116129 Z" id="Fill-9" fill="#414042"></path>
                    <polygon id="Fill-10" fill="#414042" points="134.484828 24.0392258 136.873448 24.0392258 136.873448 1.216 134.484828 1.216"></polygon>
                    <path d="M142.566207,1.78787097 L144.954828,1.78787097 L144.954828,4.55329032 L142.566207,4.55329032 L142.566207,1.78787097 Z M142.566207,8.14451613 L144.954828,8.14451613 L144.954828,24.0381935 L142.566207,24.0381935 L142.566207,8.14451613 Z" id="Fill-11" fill="#414042"></path>
                    <path d="M152.657069,24.0384 L150.268448,24.0384 L150.268448,8.14472258 L152.625,8.14472258 L152.625,9.25749677 C154.346379,8.30472258 155.990172,7.82781935 157.563621,7.82781935 C159.686379,7.82781935 161.115,8.39969032 161.848448,9.54446452 C162.580862,10.6882065 162.947069,12.7217548 162.947069,15.6471742 L162.947069,24.0384 L160.588448,24.0384 L160.588448,15.7101419 C160.588448,13.5073032 160.371207,11.9971097 159.936724,11.1805935 C159.501207,10.3640774 158.572241,9.95633548 157.148793,9.95633548 C156.468103,9.95633548 155.751207,10.0574968 154.998103,10.2587871 C154.245,10.4600774 153.666724,10.6562065 153.263276,10.8471742 L152.657069,11.1331097 L152.657069,24.0384 Z" id="Fill-12" fill="#414042"></path>
                    <path d="M178.117034,21.9806968 L179.040828,21.885729 L179.104966,23.7603097 C176.684276,24.0999226 174.613241,24.2692129 172.893931,24.2692129 C170.598414,24.2692129 168.974276,23.6075355 168.018414,22.2821161 C167.062552,20.9587613 166.584621,18.8973419 166.584621,16.0988903 C166.584621,10.5267613 168.803586,7.73966452 173.243586,7.73966452 C175.388069,7.73966452 176.991517,8.33837419 178.053931,9.53476129 C179.11531,10.7332129 179.646,12.6129548 179.646,15.1781161 L179.517724,16.989729 L169.006345,16.989729 C169.006345,18.7486968 169.324966,20.0524387 169.962207,20.8999226 C170.598414,21.7463742 171.708414,22.1716645 173.291172,22.1716645 C174.871862,22.1716645 176.481517,22.1066323 178.117034,21.9806968 L178.117034,21.9806968 Z M177.257379,15.0831484 C177.257379,13.1332129 176.943931,11.7551484 176.317034,10.9499871 C175.690138,10.1448258 174.671172,9.74224516 173.259103,9.74224516 C171.846,9.74224516 170.785655,10.1665032 170.072897,11.0129548 C169.362207,11.861471 168.994966,13.2178581 168.974276,15.0831484 L177.257379,15.0831484 Z" id="Fill-13" fill="#414042"></path>
                    <g id="bug">
                        <path d="M22.4211724,0.909006452 L21.1177241,0.909006452 L16.6249655,0.909006452 L6.34634483,0.909006452 C3.35255172,0.909006452 0.901862069,3.32965161 0.901862069,6.28707097 L0.901862069,12.6106839 L0.901862069,14.0620387 L0.901862069,19.2357161 L0.901862069,25.3766194 L0.901862069,25.4034581 C0.901862069,26.8579097 1.69117241,28.1348129 2.86634483,28.8491355 C3.37531034,29.1598452 3.95565517,29.3662968 4.57841379,29.4282323 C4.716,29.4426839 4.85668966,29.4499097 4.99841379,29.4499097 C5.00462069,29.4499097 5.01082759,29.4488774 5.01703448,29.4488774 L5.13910345,29.4488774 C7.39427586,29.4488774 9.2397931,27.607329 9.2397931,25.3559742 L9.2397931,24.6137806 L21.1177241,24.6137806 C24.1125517,24.6137806 26.5622069,22.1941677 26.5622069,19.2357161 L26.5622069,9.95778065 L26.5622069,9.95674839 L26.5622069,5.04113548 C26.5622069,2.76810323 24.6991034,0.909006452 22.4211724,0.909006452 M19.953931,14.0888774 C19.2484138,17.4561032 15.8242759,19.6878452 12.4508276,18.999329 C8.56324138,18.2055226 6.32255172,13.8999742 7.90013793,10.2622968 C9.18910345,7.28939355 12.6566897,5.73687742 15.7415172,6.76190968 C18.7704828,7.76732903 20.6077241,10.9735226 19.953931,14.0888774" id="Fill-14" fill="#E47130"></path>
                        <path d="M13.7313103,6.4379871 C14.8847586,6.4379871 15.9637241,6.74972903 16.8968276,7.28547097 L16.8968276,6.28727742 C16.8968276,3.32882581 14.4709655,0.909212903 11.5071724,0.909212903 L6.29131034,0.909212903 C3.32751724,0.909212903 0.901655172,3.32882581 0.901655172,6.28727742 L0.901655172,12.6067613 C0.901655172,10.3265032 2.7782069,8.46224516 5.07165517,8.46224516 C6.27475862,8.46224516 7.35889655,8.97837419 8.12234483,9.79592258 C9.19303448,7.79850323 11.3023448,6.4379871 13.7313103,6.4379871" id="Fill-15" fill="#D56430"></path>
                    </g>
                </g>
            </g>
        </g>
    </g>
</svg>